rstudio::conf 2017 recap
…
1. tibble]

---
<h2> #2: list-cols</h2>

```r
library(gapminder)

gapminder %>%
  group_by(country) %>%
  nest() # from tidyr package
```

```
## # A tibble: 142 × 2
##        country              data
##         <fctr>            <list>
## 1  Afghanistan <tibble [12 × 5]>
## 2      Albania <tibble [12 × 5]>
## 3      Algeria <tibble [12 × 5]>
## 4       Angola <tibble [12 × 5]>
## 5    Argentina <tibble [12 × 5]>
## 6    Australia <tibble [12 × 5]>
## 7      Austria <tibble [12 × 5]>
## 8      Bahrain <tibble [12 × 5]>
## 9   Bangladesh <tibble [12 × 5]>
## 10     Belgium <tibble [12 × 5]>
## # ... with 132 more rows
```
…
<h2> #4: repurrrsive</h2>

```r
gap_fits <- gap_nested %>%
  mutate(fit = map(data, ~ lm(lifeExp ~ year, data = .x)))

gap_fits
```

```
## # A tibble: 142 × 4
##        country continent              data      fit
##         <fctr>    <fctr>            <list>   <list>
## 1  Afghanistan      Asia <tibble [12 × 4]> <S3: lm>
## 2      Albania    Europe <tibble [12 × 4]> <S3: lm>
## 3      Algeria    Africa <tibble [12 × 4]> <S3: lm>
## 4       Angola    Africa <tibble [12 × 4]> <S3: lm>
## 5    Argentina  Americas <tibble [12 × 4]> <S3: lm>
## 6    Australia   Oceania <tibble [12 × 4]> <S3: lm>
## 7      Austria    Europe <tibble [12 × 4]> <S3: lm>
## 8      Bahrain      Asia <tibble [12 × 4]> <S3: lm>
## 9   Bangladesh      Asia <tibble [12 × 4]> <S3: lm>
## 10     Belgium    Europe <tibble [12 × 4]> <S3: lm>
## # ... with 132 more rows
```
…
